{
	"name": "Use Terraform to Deploy F5 to AWS",
	"values": [
		{
			"key": "bigip1_mgmt_ip",
			"value": "${BIGIP1_MGMT_IP_ADDRESS}",
			"enabled": true
		},
		{
			"key": "bigip2_mgmt_ip",
			"value": "${BIGIP2_MGMT_IP_ADDRESS}",
			"enabled": true
		},
		{
			"key": "bigip_admin",
			"value": "${BIGIP_ADMIN}",
			"enabled": true
		},
		{
			"key": "bigip_admin_password",
			"value": "${BIGIP_ADMIN_PASSWORD}",
			"enabled": true
		},
		{
			"key": "bigip_root",
			"value": "",
			"enabled": true
		},
		{
			"key": "bigip_root_password",
			"value": "",
			"enabled": true
		},
		{
			"key": "bigip1_auth_token",
			"value": "",
			"enabled": true
		},
		{
			"key": "bigip2_auth_token",
			"value": "",
			"enabled": true
		},
		{
			"key": "bigip1_traffic_self_ip",
			"value": "${BIGIP1_TRAFFIC_PRIVATE_ADDRESS}/24",
			"enabled": true
		},
		{
			"key": "bigip2_traffic_self_ip",
			"value": "${BIGIP2_TRAFFIC_PRIVATE_ADDRESS}/24",
			"enabled": true
		},
		{
			"key": "bigip1_hostname",
			"value": "bigip1.ewsseclab.dev",
			"enabled": true
		},
		{
			"key": "bigip2_hostname",
			"value": "bigip2.ewsseclab.dev",
			"enabled": true
		},
		{
			"key": "web1_address",
			"value": "${WEB1_PRIVATE_IP_ADDRESS}",
			"enabled": true
		},
		{
			"key": "web2_address",
			"value": "${WEB2_PRIVATE_IP_ADDRESS}",
			"enabled": true
		},
		{
			"key": "aws_access_key_id",
			"value": "${AWS_ACCESS_KEY_ID}",
			"enabled": true
		},
		{
			"key": "aws_secret_access_key",
			"value": "${AWS_SECRET_ACCESS_KEY}",
			"enabled": true
		},
		{
			"key": "aws_session_token",
			"value": "${AWS_SESSION_TOKEN}",
			"enabled": true
		},
		{
			"key": "bigip1_default_route",
			"value": "${BIGIP1_DEFAULT_ROUTE}",
			"enabled": true
		},
		{
			"key": "bigip2_default_route",
			"value": "${BIGIP2_DEFAULT_ROUTE}",
			"enabled": true
		},
		{
			"key": "bigip1_example01_address",
			"value": "${BIGIP1_EXAMPLE01_ADDRESS}",
			"enabled": true
		},
		{
			"key": "bigip1_example02_address",
			"value": "${BIGIP1_EXAMPLE02_ADDRESS}",
			"enabled": true
		},
		{
			"key": "bigip1_example03_address",
			"value": "${BIGIP1_EXAMPLE03_ADDRESS}",
			"enabled": true
		},
		{
			"key": "bigip1_example04_address",
			"value": "${BIGIP1_EXAMPLE04_ADDRESS}",
			"enabled": true
		},
		{
			"key": "bigip2_example01_address",
			"value": "${BIGIP2_EXAMPLE01_ADDRESS}",
			"enabled": true
		},
		{
			"key": "bigip2_example02_address",
			"value": "${BIGIP2_EXAMPLE02_ADDRESS}",
			"enabled": true
		},
		{
			"key": "bigip2_example03_address",
			"value": "${BIGIP2_EXAMPLE03_ADDRESS}",
			"enabled": true
		},
		{
			"key": "bigip2_example04_address",
			"value": "${BIGIP2_EXAMPLE04_ADDRESS}",
			"enabled": true
		},
		{
			"key": "bigip1_mgmt_private_address",
			"value": "${BIGIP1_MGMT_PRIVATE_ADDRESS}",
			"enabled": true
		},
		{
			"key": "bigip2_mgmt_private_address",
			"value": "${BIGIP2_MGMT_PRIVATE_ADDRESS}",
			"enabled": true
		},
		{
			"key": "dns_server",
			"value": "169.254.169.253",
			"enabled": true
		},
		{
			"key": "private_ca",
			"value": "${PRIVATE_CA}",
			"enabled": true
		},
		{
			"key": "juiceshop_cert",
			"value": "${JUICESHOP_CERT}",
			"enabled": true
		},
		{
			"key": "juiceshop_key",
			"value": "${JUICESHOP_KEY}",
			"enabled": true
		}
	],
	"_postman_variable_scope": "environment",
	"_postman_exported_using": "Postman/7.14.0"
}

